dataset, model, gridsearch type, feature, score, best parameters
dataset_1,Neural network,epochs and batch_size,count_vectorizer,0.9935976853551869,"{'batch_size': 20, 'epochs': 50}"
dataset_1,Neural network,optimizer,count_vector,0.9929781065209746,{'optimizer': 'Adam'}
dataset_1,Neural network,learn_rate and momentum,count_vector,0.9927715802429038,"{'learn_rate': 0.2, 'momentum': 0.8}"
dataset_1,Neural network,weight_initialization,count_vector,0.9931846327990453,{'init_mode': 'glorot_uniform'}
dataset_1,Neural network,activation,count_vector,0.9920487406085415,{'activation': 'hard_sigmoid'}
dataset_1,Neural network,activation,count_vector,0.9922559976577758,{'activation': 'hard_sigmoid'}
dataset_2,Neural network,activation,count_vector,0.7625870823860168,{'activation': 'softmax'}
