dataset,model,accuracy,feature,layers,epochs,batches,dropout,optimizer
dataset_2,Deep Neural Network,0.5682234764099121,label_encoder,3,10,10,0.2,nadam
dataset_2,Deep Neural Network,0.4317765235900879,label_encoder,3,10,10,0.2,nadam
dataset_3,Deep Neural Network,0.49974027276039124,label_encoder,3,10,10,0.2,nadam
dataset_3,Deep Neural Network,0.5002596974372864,label_encoder,3,10,10,0.2,nadam
dataset_3,Deep Neural Network,0.5002596974372864,label_encoder,3,10,10,0.2,nadam
dataset_3,Deep Neural Network,0.49974027276039124,label_encoder,10,10,10,0.2,nadam
dataset_1,Deep Neural Network,0.426300585269928,label_encoder,3,10,10,0.2,nadam
dataset_1,Deep Neural Network,0.573699414730072,label_encoder,10,10,10,0.2,nadam
dataset_1,Deep Neural Network,0.573699414730072,label_encoder,3,10,10,0.2,nadam
dataset_1,Deep Neural Network,0.426300585269928,label_encoder,3,10,10,0.2,nadam
dataset_1,Deep Neural Network,0.573699414730072,label_encoder,10,10,10,0.2,nadam
